EESchema Schematic File Version 4
LIBS:FlopICY-cache
EELAYER 29 0
EELAYER END
$Descr A4 11693 8268
encoding utf-8
Sheet 1 1
Title ""
Date ""
Rev ""
Comp ""
Comment1 ""
Comment2 ""
Comment3 ""
Comment4 ""
$EndDescr
$Comp
L DB23:DB23_Male J1
U 1 1 5D2AC22B
P 4850 3300
F 0 "J1" H 5030 3296 50  0000 L CNN
F 1 "DB23_Male" H 5030 3205 50  0000 L CNN
F 2 "DB23:DSUB-23_Male_EdgeMount_P2.77mm" H 4850 3300 50  0001 C CNN
F 3 " ~" H 4850 3300 50  0001 C CNN
	1    4850 3300
	1    0    0    -1  
$EndComp
$Comp
L 74xx:74LS01 U1
U 1 1 5D2AEB63
P 1500 2850
F 0 "U1" H 1500 3175 50  0000 C CNN
F 1 "74LS01" H 1500 3084 50  0000 C CNN
F 2 "" H 1500 2850 50  0001 C CNN
F 3 "http://www.nteinc.com/specs/7400to7499/pdf/nte74LS01.pdf" H 1500 2850 50  0001 C CNN
	1    1500 2850
	1    0    0    -1  
$EndComp
$Comp
L 74xx:74LS01 U1
U 2 1 5D2B0777
P 1550 3800
F 0 "U1" H 1550 4125 50  0000 C CNN
F 1 "74LS01" H 1550 4034 50  0000 C CNN
F 2 "" H 1550 3800 50  0001 C CNN
F 3 "http://www.nteinc.com/specs/7400to7499/pdf/nte74LS01.pdf" H 1550 3800 50  0001 C CNN
	2    1550 3800
	-1   0    0    1   
$EndComp
$Comp
L 74xx:74LS01 U1
U 3 1 5D2B318D
P 2150 4650
F 0 "U1" H 2150 4975 50  0000 C CNN
F 1 "74LS01" H 2150 4884 50  0000 C CNN
F 2 "" H 2150 4650 50  0001 C CNN
F 3 "http://www.nteinc.com/specs/7400to7499/pdf/nte74LS01.pdf" H 2150 4650 50  0001 C CNN
	3    2150 4650
	1    0    0    -1  
$EndComp
$Comp
L 74xx:74LS01 U1
U 4 1 5D2B5978
P 2450 2750
F 0 "U1" H 2450 3075 50  0000 C CNN
F 1 "74LS01" H 2450 2984 50  0000 C CNN
F 2 "" H 2450 2750 50  0001 C CNN
F 3 "http://www.nteinc.com/specs/7400to7499/pdf/nte74LS01.pdf" H 2450 2750 50  0001 C CNN
	4    2450 2750
	1    0    0    -1  
$EndComp
Wire Wire Line
	4550 2300 4400 2300
$Comp
L power:VCC #PWR0101
U 1 1 5D2C4AF0
P 4400 2300
F 0 "#PWR0101" H 4400 2150 50  0001 C CNN
F 1 "VCC" H 4417 2473 50  0000 C CNN
F 2 "" H 4400 2300 50  0001 C CNN
F 3 "" H 4400 2300 50  0001 C CNN
	1    4400 2300
	1    0    0    -1  
$EndComp
$Comp
L power:GND #PWR0102
U 1 1 5D2C5424
P 4150 4100
F 0 "#PWR0102" H 4150 3850 50  0001 C CNN
F 1 "GND" H 4155 3927 50  0000 C CNN
F 2 "" H 4150 4100 50  0001 C CNN
F 3 "" H 4150 4100 50  0001 C CNN
	1    4150 4100
	1    0    0    -1  
$EndComp
Wire Wire Line
	4550 4100 4150 4100
$Comp
L 74xx:74LS01 U1
U 5 1 5D2C6B56
P 3000 1200
F 0 "U1" H 3230 1246 50  0000 L CNN
F 1 "74LS01" H 3230 1155 50  0000 L CNN
F 2 "Package_SO:SOIC-14_3.9x8.7mm_P1.27mm" H 3000 1200 50  0001 C CNN
F 3 "http://www.nteinc.com/specs/7400to7499/pdf/nte74LS01.pdf" H 3000 1200 50  0001 C CNN
	5    3000 1200
	1    0    0    -1  
$EndComp
$Comp
L power:VCC #PWR0103
U 1 1 5D2D0952
P 3000 700
F 0 "#PWR0103" H 3000 550 50  0001 C CNN
F 1 "VCC" H 3017 873 50  0000 C CNN
F 2 "" H 3000 700 50  0001 C CNN
F 3 "" H 3000 700 50  0001 C CNN
	1    3000 700 
	1    0    0    -1  
$EndComp
$Comp
L power:GND #PWR0104
U 1 1 5D2D1453
P 3000 1700
F 0 "#PWR0104" H 3000 1450 50  0001 C CNN
F 1 "GND" H 3005 1527 50  0000 C CNN
F 2 "" H 3000 1700 50  0001 C CNN
F 3 "" H 3000 1700 50  0001 C CNN
	1    3000 1700
	1    0    0    -1  
$EndComp
$Comp
L Device:R R1
U 1 1 5D2D2E4C
P 3850 950
F 0 "R1" H 3920 996 50  0000 L CNN
F 1 "4.7k" H 3920 905 50  0000 L CNN
F 2 "Resistor_SMD:R_0805_2012Metric_Pad1.15x1.40mm_HandSolder" V 3780 950 50  0001 C CNN
F 3 "~" H 3850 950 50  0001 C CNN
	1    3850 950 
	1    0    0    -1  
$EndComp
$Comp
L Device:R R2
U 1 1 5D2D3676
P 4150 950
F 0 "R2" H 4220 996 50  0000 L CNN
F 1 "4.7k" H 4220 905 50  0000 L CNN
F 2 "Resistor_SMD:R_0805_2012Metric_Pad1.15x1.40mm_HandSolder" V 4080 950 50  0001 C CNN
F 3 "~" H 4150 950 50  0001 C CNN
	1    4150 950 
	1    0    0    -1  
$EndComp
$Comp
L Device:R R4
U 1 1 5D2D3B44
P 4850 950
F 0 "R4" H 4920 996 50  0000 L CNN
F 1 "10k" H 4920 905 50  0000 L CNN
F 2 "Resistor_SMD:R_0805_2012Metric_Pad1.15x1.40mm_HandSolder" V 4780 950 50  0001 C CNN
F 3 "~" H 4850 950 50  0001 C CNN
	1    4850 950 
	1    0    0    -1  
$EndComp
$Comp
L Device:R R5
U 1 1 5D2D3F3F
P 5150 950
F 0 "R5" H 5220 996 50  0000 L CNN
F 1 "10k" H 5220 905 50  0000 L CNN
F 2 "Resistor_SMD:R_0805_2012Metric_Pad1.15x1.40mm_HandSolder" V 5080 950 50  0001 C CNN
F 3 "~" H 5150 950 50  0001 C CNN
	1    5150 950 
	1    0    0    -1  
$EndComp
Text GLabel 4250 2800 0    50   Output ~ 0
_SEL1
Text GLabel 4300 3400 0    50   Output ~ 0
_STEP
Text GLabel 4200 3200 0    50   Output ~ 0
DIR
Text GLabel 4250 4000 0    50   Input ~ 0
_TK0
Wire Wire Line
	4550 2800 4250 2800
Wire Wire Line
	4550 3200 4200 3200
Wire Wire Line
	4550 3400 4300 3400
Wire Wire Line
	4550 4000 4250 4000
Wire Wire Line
	1200 2750 1200 2850
Wire Wire Line
	1200 2850 1050 2850
Wire Wire Line
	1200 2950 1200 2850
Connection ~ 1200 2850
Wire Wire Line
	1800 2850 2150 2850
Wire Wire Line
	2150 2650 2150 2400
Wire Wire Line
	2150 2400 1050 2400
Wire Wire Line
	5150 800  4850 800 
Connection ~ 4850 800 
Wire Wire Line
	4150 800  3850 800 
Connection ~ 4150 800 
$Comp
L power:VCC #PWR0105
U 1 1 5D2C260C
P 3850 800
F 0 "#PWR0105" H 3850 650 50  0001 C CNN
F 1 "VCC" H 3867 973 50  0000 C CNN
F 2 "" H 3850 800 50  0001 C CNN
F 3 "" H 3850 800 50  0001 C CNN
	1    3850 800 
	1    0    0    -1  
$EndComp
Connection ~ 3850 800 
Text GLabel 4850 1100 3    50   Input ~ 0
SELUP
Text GLabel 1950 2850 1    50   Input ~ 0
SELUP
Text GLabel 3200 2750 2    50   Output ~ 0
SCL
Wire Wire Line
	3200 2750 2750 2750
Text GLabel 3850 1100 3    50   Input ~ 0
SCLUP
Text GLabel 2950 2750 1    50   Input ~ 0
SCLUP
Text GLabel 4150 1100 3    50   Input ~ 0
SDAUP
Text GLabel 3250 3900 2    50   BiDi ~ 0
SDA
Text GLabel 1050 2850 0    50   Input ~ 0
_SEL1
Text GLabel 1050 2400 0    50   Input ~ 0
_STEP
Text GLabel 1000 3800 0    50   Output ~ 0
_TK0
Wire Wire Line
	1250 3800 1000 3800
Text GLabel 5150 1100 3    50   Input ~ 0
TK0UP
Text GLabel 1200 3800 1    50   Input ~ 0
TK0UP
Text GLabel 1950 3600 1    50   Input ~ 0
SELUP
Wire Wire Line
	3250 3900 3000 3900
Wire Wire Line
	1850 3700 1950 3700
Wire Wire Line
	1950 3700 1950 3600
Wire Wire Line
	2450 4650 3000 4650
Wire Wire Line
	3000 4650 3000 3900
Connection ~ 3000 3900
Wire Wire Line
	3000 3900 1850 3900
Text GLabel 1850 4350 1    50   Input ~ 0
SELUP
Wire Wire Line
	1850 4350 1850 4550
Text GLabel 1050 4750 0    50   Input ~ 0
DIR
Wire Wire Line
	1850 4750 1050 4750
Wire Wire Line
	4150 800  4850 800 
$Comp
L Device:C C1
U 1 1 5D2D59F0
P 2450 1200
F 0 "C1" H 2565 1246 50  0000 L CNN
F 1 "100nF" H 2565 1155 50  0000 L CNN
F 2 "Capacitor_SMD:C_0805_2012Metric_Pad1.15x1.40mm_HandSolder" H 2488 1050 50  0001 C CNN
F 3 "~" H 2450 1200 50  0001 C CNN
	1    2450 1200
	1    0    0    -1  
$EndComp
$Comp
L power:VCC #PWR0106
U 1 1 5D2D5DFB
P 2450 1050
F 0 "#PWR0106" H 2450 900 50  0001 C CNN
F 1 "VCC" H 2467 1223 50  0000 C CNN
F 2 "" H 2450 1050 50  0001 C CNN
F 3 "" H 2450 1050 50  0001 C CNN
	1    2450 1050
	1    0    0    -1  
$EndComp
$Comp
L power:GND #PWR0107
U 1 1 5D2D6412
P 2450 1350
F 0 "#PWR0107" H 2450 1100 50  0001 C CNN
F 1 "GND" H 2455 1177 50  0000 C CNN
F 2 "" H 2450 1350 50  0001 C CNN
F 3 "" H 2450 1350 50  0001 C CNN
	1    2450 1350
	1    0    0    -1  
$EndComp
$Comp
L power:GND #PWR0108
U 1 1 5D2D69DA
P 3900 3900
F 0 "#PWR0108" H 3900 3650 50  0001 C CNN
F 1 "GND" H 3905 3727 50  0000 C CNN
F 2 "" H 3900 3900 50  0001 C CNN
F 3 "" H 3900 3900 50  0001 C CNN
	1    3900 3900
	1    0    0    -1  
$EndComp
Wire Wire Line
	4550 3900 4400 3900
Wire Wire Line
	4550 3700 4400 3700
Wire Wire Line
	4400 3700 4400 3900
Connection ~ 4400 3900
Wire Wire Line
	4400 3900 3900 3900
Wire Wire Line
	4550 3500 4400 3500
Wire Wire Line
	4400 3500 4400 3700
Connection ~ 4400 3700
$Comp
L Connector_Generic:Conn_01x04 J2
U 1 1 5D2D90EB
P 6600 2300
F 0 "J2" H 6680 2292 50  0000 L CNN
F 1 "Conn_01x04" H 6680 2201 50  0000 L CNN
F 2 "Connector_PinHeader_2.54mm:PinHeader_1x04_P2.54mm_Horizontal" H 6600 2300 50  0001 C CNN
F 3 "~" H 6600 2300 50  0001 C CNN
	1    6600 2300
	1    0    0    -1  
$EndComp
$Comp
L power:VCC #PWR0109
U 1 1 5D2D9C5A
P 6000 2300
F 0 "#PWR0109" H 6000 2150 50  0001 C CNN
F 1 "VCC" H 6017 2473 50  0000 C CNN
F 2 "" H 6000 2300 50  0001 C CNN
F 3 "" H 6000 2300 50  0001 C CNN
	1    6000 2300
	1    0    0    -1  
$EndComp
$Comp
L power:GND #PWR0110
U 1 1 5D2DADD5
P 6250 2000
F 0 "#PWR0110" H 6250 1750 50  0001 C CNN
F 1 "GND" H 6255 1827 50  0000 C CNN
F 2 "" H 6250 2000 50  0001 C CNN
F 3 "" H 6250 2000 50  0001 C CNN
	1    6250 2000
	1    0    0    -1  
$EndComp
Wire Wire Line
	6400 2200 6400 2000
Wire Wire Line
	6400 2000 6250 2000
Wire Wire Line
	6400 2300 6000 2300
Text GLabel 6200 2500 0    50   Output ~ 0
SCL
Text GLabel 6200 2400 0    50   BiDi ~ 0
SDA
Wire Wire Line
	6400 2400 6200 2400
Wire Wire Line
	6400 2500 6200 2500
$Comp
L Connector_Generic:Conn_01x04 J3
U 1 1 5D2E2ADD
P 6600 2850
F 0 "J3" H 6680 2842 50  0000 L CNN
F 1 "Conn_01x04" H 6680 2751 50  0000 L CNN
F 2 "Connector_PinHeader_2.54mm:PinHeader_1x04_P2.54mm_Horizontal" H 6600 2850 50  0001 C CNN
F 3 "~" H 6600 2850 50  0001 C CNN
	1    6600 2850
	1    0    0    -1  
$EndComp
$Comp
L power:GND #PWR0111
U 1 1 5D2E33A7
P 6250 2600
F 0 "#PWR0111" H 6250 2350 50  0001 C CNN
F 1 "GND" H 6255 2427 50  0000 C CNN
F 2 "" H 6250 2600 50  0001 C CNN
F 3 "" H 6250 2600 50  0001 C CNN
	1    6250 2600
	1    0    0    -1  
$EndComp
$Comp
L power:VCC #PWR0112
U 1 1 5D2E3765
P 6000 2800
F 0 "#PWR0112" H 6000 2650 50  0001 C CNN
F 1 "VCC" H 6017 2973 50  0000 C CNN
F 2 "" H 6000 2800 50  0001 C CNN
F 3 "" H 6000 2800 50  0001 C CNN
	1    6000 2800
	1    0    0    -1  
$EndComp
Text GLabel 6200 2950 0    50   BiDi ~ 0
SDA
Text GLabel 6200 3050 0    50   Output ~ 0
SCL
Wire Wire Line
	6400 2750 6400 2600
Wire Wire Line
	6400 2600 6250 2600
Wire Wire Line
	6400 2850 6000 2850
Wire Wire Line
	6000 2850 6000 2800
Wire Wire Line
	6400 2950 6200 2950
Wire Wire Line
	6400 3050 6200 3050
Text GLabel 3000 3900 1    50   Input ~ 0
SDAUP
$Comp
L Connector_Generic:Conn_01x01 J4
U 1 1 5D2FEBA3
P 7900 650
F 0 "J4" H 7980 692 50  0000 L CNN
F 1 "Conn_01x01" H 7980 601 50  0000 L CNN
F 2 "MountingHole:MountingHole_2.7mm_M2.5_DIN965_Pad" H 7900 650 50  0001 C CNN
F 3 "~" H 7900 650 50  0001 C CNN
	1    7900 650 
	1    0    0    -1  
$EndComp
$Comp
L Connector_Generic:Conn_01x01 J5
U 1 1 5D2FF549
P 7900 850
F 0 "J5" H 7980 892 50  0000 L CNN
F 1 "Conn_01x01" H 7980 801 50  0000 L CNN
F 2 "MountingHole:MountingHole_2.7mm_M2.5_DIN965_Pad" H 7900 850 50  0001 C CNN
F 3 "~" H 7900 850 50  0001 C CNN
	1    7900 850 
	1    0    0    -1  
$EndComp
$EndSCHEMATC
