(module DSUB-23_Male_EdgeMount_P2.77mm (layer F.Cu) (tedit 5D2A5506)
  (descr "25-pin D-Sub connector, solder-cups edge-mounted, male, x-pin-pitch 2.77mm, distance of mounting holes 47.1mm, see https://disti-assets.s3.amazonaws.com/tonar/files/datasheets/16730.pdf")
  (tags "25-pin D-Sub connector edge mount solder cup male x-pin-pitch 2.77mm mounting holes distance 47.1mm")
  (attr smd)
  (fp_text reference REF** (at -19.120933 0.9144) (layer F.SilkS)
    (effects (font (size 1 1) (thickness 0.15)))
  )
  (fp_text value DSUB-23_Male_EdgeMount_P2.77mm (at 1.4224 17.6044) (layer F.Fab)
    (effects (font (size 1 1) (thickness 0.15)))
  )
  (fp_line (start -15.7976 0.0044) (end -15.7976 2.9044) (layer F.Fab) (width 0.1))
  (fp_line (start -15.7976 2.9044) (end -14.5976 2.9044) (layer F.Fab) (width 0.1))
  (fp_line (start -14.5976 2.9044) (end -14.5976 0.0044) (layer F.Fab) (width 0.1))
  (fp_line (start -14.5976 0.0044) (end -15.7976 0.0044) (layer F.Fab) (width 0.1))
  (fp_line (start -13.0276 0.0044) (end -13.0276 2.9044) (layer F.Fab) (width 0.1))
  (fp_line (start -13.0276 2.9044) (end -11.8276 2.9044) (layer F.Fab) (width 0.1))
  (fp_line (start -11.8276 2.9044) (end -11.8276 0.0044) (layer F.Fab) (width 0.1))
  (fp_line (start -11.8276 0.0044) (end -13.0276 0.0044) (layer F.Fab) (width 0.1))
  (fp_line (start -10.2576 0.0044) (end -10.2576 2.9044) (layer F.Fab) (width 0.1))
  (fp_line (start -10.2576 2.9044) (end -9.0576 2.9044) (layer F.Fab) (width 0.1))
  (fp_line (start -9.0576 2.9044) (end -9.0576 0.0044) (layer F.Fab) (width 0.1))
  (fp_line (start -9.0576 0.0044) (end -10.2576 0.0044) (layer F.Fab) (width 0.1))
  (fp_line (start -7.4876 0.0044) (end -7.4876 2.9044) (layer F.Fab) (width 0.1))
  (fp_line (start -7.4876 2.9044) (end -6.2876 2.9044) (layer F.Fab) (width 0.1))
  (fp_line (start -6.2876 2.9044) (end -6.2876 0.0044) (layer F.Fab) (width 0.1))
  (fp_line (start -6.2876 0.0044) (end -7.4876 0.0044) (layer F.Fab) (width 0.1))
  (fp_line (start -4.7176 0.0044) (end -4.7176 2.9044) (layer F.Fab) (width 0.1))
  (fp_line (start -4.7176 2.9044) (end -3.5176 2.9044) (layer F.Fab) (width 0.1))
  (fp_line (start -3.5176 2.9044) (end -3.5176 0.0044) (layer F.Fab) (width 0.1))
  (fp_line (start -3.5176 0.0044) (end -4.7176 0.0044) (layer F.Fab) (width 0.1))
  (fp_line (start -1.9476 0.0044) (end -1.9476 2.9044) (layer F.Fab) (width 0.1))
  (fp_line (start -1.9476 2.9044) (end -0.7476 2.9044) (layer F.Fab) (width 0.1))
  (fp_line (start -0.7476 2.9044) (end -0.7476 0.0044) (layer F.Fab) (width 0.1))
  (fp_line (start -0.7476 0.0044) (end -1.9476 0.0044) (layer F.Fab) (width 0.1))
  (fp_line (start 0.8224 0.0044) (end 0.8224 2.9044) (layer F.Fab) (width 0.1))
  (fp_line (start 0.8224 2.9044) (end 2.0224 2.9044) (layer F.Fab) (width 0.1))
  (fp_line (start 2.0224 2.9044) (end 2.0224 0.0044) (layer F.Fab) (width 0.1))
  (fp_line (start 2.0224 0.0044) (end 0.8224 0.0044) (layer F.Fab) (width 0.1))
  (fp_line (start 3.5924 0.0044) (end 3.5924 2.9044) (layer F.Fab) (width 0.1))
  (fp_line (start 3.5924 2.9044) (end 4.7924 2.9044) (layer F.Fab) (width 0.1))
  (fp_line (start 4.7924 2.9044) (end 4.7924 0.0044) (layer F.Fab) (width 0.1))
  (fp_line (start 4.7924 0.0044) (end 3.5924 0.0044) (layer F.Fab) (width 0.1))
  (fp_line (start 6.3624 0.0044) (end 6.3624 2.9044) (layer F.Fab) (width 0.1))
  (fp_line (start 6.3624 2.9044) (end 7.5624 2.9044) (layer F.Fab) (width 0.1))
  (fp_line (start 7.5624 2.9044) (end 7.5624 0.0044) (layer F.Fab) (width 0.1))
  (fp_line (start 7.5624 0.0044) (end 6.3624 0.0044) (layer F.Fab) (width 0.1))
  (fp_line (start 9.1324 0.0044) (end 9.1324 2.9044) (layer F.Fab) (width 0.1))
  (fp_line (start 9.1324 2.9044) (end 10.3324 2.9044) (layer F.Fab) (width 0.1))
  (fp_line (start 10.3324 2.9044) (end 10.3324 0.0044) (layer F.Fab) (width 0.1))
  (fp_line (start 10.3324 0.0044) (end 9.1324 0.0044) (layer F.Fab) (width 0.1))
  (fp_line (start 11.9024 0.0044) (end 11.9024 2.9044) (layer F.Fab) (width 0.1))
  (fp_line (start 11.9024 2.9044) (end 13.1024 2.9044) (layer F.Fab) (width 0.1))
  (fp_line (start 13.1024 2.9044) (end 13.1024 0.0044) (layer F.Fab) (width 0.1))
  (fp_line (start 13.1024 0.0044) (end 11.9024 0.0044) (layer F.Fab) (width 0.1))
  (fp_line (start 14.6724 0.0044) (end 14.6724 2.9044) (layer F.Fab) (width 0.1))
  (fp_line (start 14.6724 2.9044) (end 15.8724 2.9044) (layer F.Fab) (width 0.1))
  (fp_line (start 15.8724 2.9044) (end 15.8724 0.0044) (layer F.Fab) (width 0.1))
  (fp_line (start 15.8724 0.0044) (end 14.6724 0.0044) (layer F.Fab) (width 0.1))
  (fp_line (start 17.4424 2.9044) (end 18.6424 2.9044) (layer F.Fab) (width 0.1))
  (fp_line (start -14.4126 0.0044) (end -14.4126 2.9044) (layer B.Fab) (width 0.1))
  (fp_line (start -14.4126 2.9044) (end -13.2126 2.9044) (layer B.Fab) (width 0.1))
  (fp_line (start -13.2126 2.9044) (end -13.2126 0.0044) (layer B.Fab) (width 0.1))
  (fp_line (start -13.2126 0.0044) (end -14.4126 0.0044) (layer B.Fab) (width 0.1))
  (fp_line (start -11.6426 0.0044) (end -11.6426 2.9044) (layer B.Fab) (width 0.1))
  (fp_line (start -11.6426 2.9044) (end -10.4426 2.9044) (layer B.Fab) (width 0.1))
  (fp_line (start -10.4426 2.9044) (end -10.4426 0.0044) (layer B.Fab) (width 0.1))
  (fp_line (start -10.4426 0.0044) (end -11.6426 0.0044) (layer B.Fab) (width 0.1))
  (fp_line (start -8.8726 0.0044) (end -8.8726 2.9044) (layer B.Fab) (width 0.1))
  (fp_line (start -8.8726 2.9044) (end -7.6726 2.9044) (layer B.Fab) (width 0.1))
  (fp_line (start -7.6726 2.9044) (end -7.6726 0.0044) (layer B.Fab) (width 0.1))
  (fp_line (start -7.6726 0.0044) (end -8.8726 0.0044) (layer B.Fab) (width 0.1))
  (fp_line (start -6.1026 0.0044) (end -6.1026 2.9044) (layer B.Fab) (width 0.1))
  (fp_line (start -6.1026 2.9044) (end -4.9026 2.9044) (layer B.Fab) (width 0.1))
  (fp_line (start -4.9026 2.9044) (end -4.9026 0.0044) (layer B.Fab) (width 0.1))
  (fp_line (start -4.9026 0.0044) (end -6.1026 0.0044) (layer B.Fab) (width 0.1))
  (fp_line (start -3.3326 0.0044) (end -3.3326 2.9044) (layer B.Fab) (width 0.1))
  (fp_line (start -3.3326 2.9044) (end -2.1326 2.9044) (layer B.Fab) (width 0.1))
  (fp_line (start -2.1326 2.9044) (end -2.1326 0.0044) (layer B.Fab) (width 0.1))
  (fp_line (start -2.1326 0.0044) (end -3.3326 0.0044) (layer B.Fab) (width 0.1))
  (fp_line (start -0.5626 0.0044) (end -0.5626 2.9044) (layer B.Fab) (width 0.1))
  (fp_line (start -0.5626 2.9044) (end 0.6374 2.9044) (layer B.Fab) (width 0.1))
  (fp_line (start 0.6374 2.9044) (end 0.6374 0.0044) (layer B.Fab) (width 0.1))
  (fp_line (start 0.6374 0.0044) (end -0.5626 0.0044) (layer B.Fab) (width 0.1))
  (fp_line (start 2.2074 0.0044) (end 2.2074 2.9044) (layer B.Fab) (width 0.1))
  (fp_line (start 2.2074 2.9044) (end 3.4074 2.9044) (layer B.Fab) (width 0.1))
  (fp_line (start 3.4074 2.9044) (end 3.4074 0.0044) (layer B.Fab) (width 0.1))
  (fp_line (start 3.4074 0.0044) (end 2.2074 0.0044) (layer B.Fab) (width 0.1))
  (fp_line (start 4.9774 0.0044) (end 4.9774 2.9044) (layer B.Fab) (width 0.1))
  (fp_line (start 4.9774 2.9044) (end 6.1774 2.9044) (layer B.Fab) (width 0.1))
  (fp_line (start 6.1774 2.9044) (end 6.1774 0.0044) (layer B.Fab) (width 0.1))
  (fp_line (start 6.1774 0.0044) (end 4.9774 0.0044) (layer B.Fab) (width 0.1))
  (fp_line (start 7.7474 0.0044) (end 7.7474 2.9044) (layer B.Fab) (width 0.1))
  (fp_line (start 7.7474 2.9044) (end 8.9474 2.9044) (layer B.Fab) (width 0.1))
  (fp_line (start 8.9474 2.9044) (end 8.9474 0.0044) (layer B.Fab) (width 0.1))
  (fp_line (start 8.9474 0.0044) (end 7.7474 0.0044) (layer B.Fab) (width 0.1))
  (fp_line (start 10.5174 0.0044) (end 10.5174 2.9044) (layer B.Fab) (width 0.1))
  (fp_line (start 10.5174 2.9044) (end 11.7174 2.9044) (layer B.Fab) (width 0.1))
  (fp_line (start 11.7174 2.9044) (end 11.7174 0.0044) (layer B.Fab) (width 0.1))
  (fp_line (start 11.7174 0.0044) (end 10.5174 0.0044) (layer B.Fab) (width 0.1))
  (fp_line (start 13.2874 0.0044) (end 13.2874 2.9044) (layer B.Fab) (width 0.1))
  (fp_line (start 13.2874 2.9044) (end 14.4874 2.9044) (layer B.Fab) (width 0.1))
  (fp_line (start 14.4874 2.9044) (end 14.4874 0.0044) (layer B.Fab) (width 0.1))
  (fp_line (start 14.4874 0.0044) (end 13.2874 0.0044) (layer B.Fab) (width 0.1))
  (fp_line (start -17.1276 2.9044) (end -17.1276 5.7044) (layer F.Fab) (width 0.1))
  (fp_line (start -17.1276 5.7044) (end 17.2024 5.7044) (layer F.Fab) (width 0.1))
  (fp_line (start 17.2024 5.7044) (end 17.2024 2.9044) (layer F.Fab) (width 0.1))
  (fp_line (start 17.2024 2.9044) (end -17.1276 2.9044) (layer F.Fab) (width 0.1))
  (fp_line (start -18.1276 5.7044) (end -18.1276 10.2044) (layer F.Fab) (width 0.1))
  (fp_line (start -18.1276 10.2044) (end 18.2024 10.2044) (layer F.Fab) (width 0.1))
  (fp_line (start 18.2024 10.2044) (end 18.2024 5.7044) (layer F.Fab) (width 0.1))
  (fp_line (start 18.2024 5.7044) (end -18.1276 5.7044) (layer F.Fab) (width 0.1))
  (fp_line (start -25.1276 10.2044) (end -25.1276 10.6044) (layer F.Fab) (width 0.1))
  (fp_line (start -25.1276 10.6044) (end 25.2024 10.6044) (layer F.Fab) (width 0.1))
  (fp_line (start 25.2024 10.6044) (end 25.2024 10.2044) (layer F.Fab) (width 0.1))
  (fp_line (start 25.2024 10.2044) (end -25.1276 10.2044) (layer F.Fab) (width 0.1))
  (fp_line (start -17.7276 10.6044) (end -17.7276 16.6044) (layer F.Fab) (width 0.1))
  (fp_line (start -17.7276 16.6044) (end 17.8024 16.6044) (layer F.Fab) (width 0.1))
  (fp_line (start 17.8024 16.6044) (end 17.8024 10.6044) (layer F.Fab) (width 0.1))
  (fp_line (start 17.8024 10.6044) (end -17.7276 10.6044) (layer F.Fab) (width 0.1))
  (fp_line (start -16.6276 -1.3356) (end 16.7024 -1.3356) (layer F.CrtYd) (width 0.05))
  (fp_line (start 16.7024 -1.3356) (end 16.7024 2.4144) (layer F.CrtYd) (width 0.05))
  (fp_line (start 16.7024 2.4144) (end 17.7024 2.4144) (layer F.CrtYd) (width 0.05))
  (fp_line (start 17.7024 2.4144) (end 17.7024 5.2144) (layer F.CrtYd) (width 0.05))
  (fp_line (start 17.7024 5.2144) (end 18.7024 5.2144) (layer F.CrtYd) (width 0.05))
  (fp_line (start 18.7024 5.2144) (end 18.7024 9.7144) (layer F.CrtYd) (width 0.05))
  (fp_line (start 18.7024 9.7144) (end 25.7024 9.7144) (layer F.CrtYd) (width 0.05))
  (fp_line (start 25.7024 9.7144) (end 25.7024 11.1144) (layer F.CrtYd) (width 0.05))
  (fp_line (start 25.7024 11.1144) (end 18.3024 11.1144) (layer F.CrtYd) (width 0.05))
  (fp_line (start 18.3024 11.1144) (end 18.3024 17.1144) (layer F.CrtYd) (width 0.05))
  (fp_line (start 18.3024 17.1144) (end -18.2276 17.1144) (layer F.CrtYd) (width 0.05))
  (fp_line (start -18.2276 17.1144) (end -18.2276 11.1144) (layer F.CrtYd) (width 0.05))
  (fp_line (start -18.2276 11.1144) (end -25.6276 11.1144) (layer F.CrtYd) (width 0.05))
  (fp_line (start -25.6276 11.1144) (end -25.6276 9.7144) (layer F.CrtYd) (width 0.05))
  (fp_line (start -25.6276 9.7144) (end -18.6276 9.7144) (layer F.CrtYd) (width 0.05))
  (fp_line (start -18.6276 9.7144) (end -18.6276 5.2144) (layer F.CrtYd) (width 0.05))
  (fp_line (start -18.6276 5.2144) (end -17.6276 5.2144) (layer F.CrtYd) (width 0.05))
  (fp_line (start -17.6276 5.2144) (end -17.6276 2.4144) (layer F.CrtYd) (width 0.05))
  (fp_line (start -17.6276 2.4144) (end -16.6276 2.4144) (layer F.CrtYd) (width 0.05))
  (fp_line (start -16.6276 2.4144) (end -16.6276 -1.3356) (layer F.CrtYd) (width 0.05))
  (fp_line (start -16.380933 -1.0856) (end -16.380933 2.6544) (layer F.SilkS) (width 0.12))
  (fp_line (start -16.380933 -1.0856) (end 16.455733 -1.0856) (layer F.SilkS) (width 0.12))
  (fp_line (start 16.455733 -1.0856) (end 16.455733 2.6544) (layer F.SilkS) (width 0.12))
  (fp_line (start -16.620933 0.9144) (end -16.620933 -1.3256) (layer F.SilkS) (width 0.12))
  (fp_line (start -16.620933 -1.3256) (end -12.4276 -1.3256) (layer F.SilkS) (width 0.12))
  (fp_line (start -25.1276 2.9044) (end 25.2024 2.9044) (layer Dwgs.User) (width 0.05))
  (fp_text user %R (at 1.4224 4.3044) (layer F.Fab)
    (effects (font (size 1 1) (thickness 0.15)))
  )
  (fp_text user "PCB edge" (at -20.1276 2.237733) (layer Dwgs.User)
    (effects (font (size 0.5 0.5) (thickness 0.075)))
  )
  (fp_line (start 1.4224 0.9144) (end 1.4224 0.9144) (layer F.SilkS) (width 0.12))
  (fp_line (start 1.4224 0.9144) (end 1.4224 0.9144) (layer F.SilkS) (width 0.12))
  (pad 1 smd rect (at -15.1976 0.9144) (size 1.846667 3.48) (layers F.Cu F.Paste F.Mask))
  (pad 2 smd rect (at -12.4276 0.9144) (size 1.846667 3.48) (layers F.Cu F.Paste F.Mask))
  (pad 3 smd rect (at -9.6576 0.9144) (size 1.846667 3.48) (layers F.Cu F.Paste F.Mask))
  (pad 4 smd rect (at -6.8876 0.9144) (size 1.846667 3.48) (layers F.Cu F.Paste F.Mask))
  (pad 5 smd rect (at -4.1176 0.9144) (size 1.846667 3.48) (layers F.Cu F.Paste F.Mask))
  (pad 6 smd rect (at -1.3476 0.9144) (size 1.846667 3.48) (layers F.Cu F.Paste F.Mask))
  (pad 7 smd rect (at 1.4224 0.9144) (size 1.846667 3.48) (layers F.Cu F.Paste F.Mask))
  (pad 8 smd rect (at 4.1924 0.9144) (size 1.846667 3.48) (layers F.Cu F.Paste F.Mask))
  (pad 9 smd rect (at 6.9624 0.9144) (size 1.846667 3.48) (layers F.Cu F.Paste F.Mask))
  (pad 10 smd rect (at 9.7324 0.9144) (size 1.846667 3.48) (layers F.Cu F.Paste F.Mask))
  (pad 11 smd rect (at 12.5024 0.9144) (size 1.846667 3.48) (layers F.Cu F.Paste F.Mask))
  (pad 12 smd rect (at 15.2724 0.9144) (size 1.846667 3.48) (layers F.Cu F.Paste F.Mask))
  (pad 13 smd rect (at -13.8126 0.9144) (size 1.846667 3.48) (layers B.Cu B.Paste B.Mask))
  (pad 14 smd rect (at -11.0426 0.9144) (size 1.846667 3.48) (layers B.Cu B.Paste B.Mask))
  (pad 15 smd rect (at -8.2726 0.9144) (size 1.846667 3.48) (layers B.Cu B.Paste B.Mask))
  (pad 16 smd rect (at -5.5026 0.9144) (size 1.846667 3.48) (layers B.Cu B.Paste B.Mask))
  (pad 17 smd rect (at -2.7326 0.9144) (size 1.846667 3.48) (layers B.Cu B.Paste B.Mask))
  (pad 18 smd rect (at 0.0374 0.9144) (size 1.846667 3.48) (layers B.Cu B.Paste B.Mask))
  (pad 19 smd rect (at 2.8074 0.9144) (size 1.846667 3.48) (layers B.Cu B.Paste B.Mask))
  (pad 20 smd rect (at 5.5774 0.9144) (size 1.846667 3.48) (layers B.Cu B.Paste B.Mask))
  (pad 21 smd rect (at 8.3474 0.9144) (size 1.846667 3.48) (layers B.Cu B.Paste B.Mask))
  (pad 22 smd rect (at 11.1174 0.9144) (size 1.846667 3.48) (layers B.Cu B.Paste B.Mask))
  (pad 23 smd rect (at 13.8874 0.9144) (size 1.846667 3.48) (layers B.Cu B.Paste B.Mask))
  (model ${KISYS3DMOD}/Connector_Dsub.3dshapes/DSUB-25_Male_EdgeMount_P2.77mm.wrl
    (at (xyz 0 0 0))
    (scale (xyz 1 1 1))
    (rotate (xyz 0 0 0))
  )
)
