%TF.GenerationSoftware,KiCad,Pcbnew,(6.0.0-rc1-dev-1542-gf9f87b3ff-dirty)*%
%TF.CreationDate,2019-07-14T16:21:30+02:00*%
%TF.ProjectId,FlopICY,466c6f70-4943-4592-9e6b-696361645f70,rev?*%
%TF.SameCoordinates,Original*%
%TF.FileFunction,Paste,Bot*%
%TF.FilePolarity,Positive*%
%FSLAX46Y46*%
G04 Gerber Fmt 4.6, Leading zero omitted, Abs format (unit mm)*
G04 Created by KiCad (PCBNEW (6.0.0-rc1-dev-1542-gf9f87b3ff-dirty)) date Sonntag, 14. Juli 2019 um 16:21:30*
%MOMM*%
%LPD*%
G04 APERTURE LIST*
%ADD10R,1.846667X3.480000*%
G04 APERTURE END LIST*
D10*
X131094400Y-121183400D03*
X133864400Y-121183400D03*
X136634400Y-121183400D03*
X139404400Y-121183400D03*
X142174400Y-121183400D03*
X144944400Y-121183400D03*
X147714400Y-121183400D03*
X150484400Y-121183400D03*
X153254400Y-121183400D03*
X156024400Y-121183400D03*
X158794400Y-121183400D03*
M02*
