%TF.GenerationSoftware,KiCad,Pcbnew,(6.0.0-rc1-dev-1542-gf9f87b3ff-dirty)*%
%TF.CreationDate,2019-07-14T16:21:30+02:00*%
%TF.ProjectId,FlopICY,466c6f70-4943-4592-9e6b-696361645f70,rev?*%
%TF.SameCoordinates,Original*%
%TF.FileFunction,Paste,Top*%
%TF.FilePolarity,Positive*%
%FSLAX46Y46*%
G04 Gerber Fmt 4.6, Leading zero omitted, Abs format (unit mm)*
G04 Created by KiCad (PCBNEW (6.0.0-rc1-dev-1542-gf9f87b3ff-dirty)) date Sonntag, 14. Juli 2019 um 16:21:30*
%MOMM*%
%LPD*%
G04 APERTURE LIST*
%ADD10R,1.846667X3.480000*%
%ADD11R,0.600000X1.500000*%
%ADD12C,0.100000*%
%ADD13C,1.150000*%
G04 APERTURE END LIST*
D10*
X129709400Y-121183400D03*
X132479400Y-121183400D03*
X135249400Y-121183400D03*
X138019400Y-121183400D03*
X140789400Y-121183400D03*
X143559400Y-121183400D03*
X146329400Y-121183400D03*
X149099400Y-121183400D03*
X151869400Y-121183400D03*
X154639400Y-121183400D03*
X157409400Y-121183400D03*
X160179400Y-121183400D03*
D11*
X143510000Y-115539500D03*
X144780000Y-115539500D03*
X146050000Y-115539500D03*
X147320000Y-115539500D03*
X148590000Y-115539500D03*
X149860000Y-115539500D03*
X151130000Y-115539500D03*
X151130000Y-110139500D03*
X149860000Y-110139500D03*
X148590000Y-110139500D03*
X147320000Y-110139500D03*
X146050000Y-110139500D03*
X144780000Y-110139500D03*
X143510000Y-110139500D03*
D12*
G36*
X140682505Y-111140704D02*
G01*
X140706773Y-111144304D01*
X140730572Y-111150265D01*
X140753671Y-111158530D01*
X140775850Y-111169020D01*
X140796893Y-111181632D01*
X140816599Y-111196247D01*
X140834777Y-111212723D01*
X140851253Y-111230901D01*
X140865868Y-111250607D01*
X140878480Y-111271650D01*
X140888970Y-111293829D01*
X140897235Y-111316928D01*
X140903196Y-111340727D01*
X140906796Y-111364995D01*
X140908000Y-111389499D01*
X140908000Y-112039501D01*
X140906796Y-112064005D01*
X140903196Y-112088273D01*
X140897235Y-112112072D01*
X140888970Y-112135171D01*
X140878480Y-112157350D01*
X140865868Y-112178393D01*
X140851253Y-112198099D01*
X140834777Y-112216277D01*
X140816599Y-112232753D01*
X140796893Y-112247368D01*
X140775850Y-112259980D01*
X140753671Y-112270470D01*
X140730572Y-112278735D01*
X140706773Y-112284696D01*
X140682505Y-112288296D01*
X140658001Y-112289500D01*
X139757999Y-112289500D01*
X139733495Y-112288296D01*
X139709227Y-112284696D01*
X139685428Y-112278735D01*
X139662329Y-112270470D01*
X139640150Y-112259980D01*
X139619107Y-112247368D01*
X139599401Y-112232753D01*
X139581223Y-112216277D01*
X139564747Y-112198099D01*
X139550132Y-112178393D01*
X139537520Y-112157350D01*
X139527030Y-112135171D01*
X139518765Y-112112072D01*
X139512804Y-112088273D01*
X139509204Y-112064005D01*
X139508000Y-112039501D01*
X139508000Y-111389499D01*
X139509204Y-111364995D01*
X139512804Y-111340727D01*
X139518765Y-111316928D01*
X139527030Y-111293829D01*
X139537520Y-111271650D01*
X139550132Y-111250607D01*
X139564747Y-111230901D01*
X139581223Y-111212723D01*
X139599401Y-111196247D01*
X139619107Y-111181632D01*
X139640150Y-111169020D01*
X139662329Y-111158530D01*
X139685428Y-111150265D01*
X139709227Y-111144304D01*
X139733495Y-111140704D01*
X139757999Y-111139500D01*
X140658001Y-111139500D01*
X140682505Y-111140704D01*
X140682505Y-111140704D01*
G37*
D13*
X140208000Y-111714500D03*
D12*
G36*
X140682505Y-109090704D02*
G01*
X140706773Y-109094304D01*
X140730572Y-109100265D01*
X140753671Y-109108530D01*
X140775850Y-109119020D01*
X140796893Y-109131632D01*
X140816599Y-109146247D01*
X140834777Y-109162723D01*
X140851253Y-109180901D01*
X140865868Y-109200607D01*
X140878480Y-109221650D01*
X140888970Y-109243829D01*
X140897235Y-109266928D01*
X140903196Y-109290727D01*
X140906796Y-109314995D01*
X140908000Y-109339499D01*
X140908000Y-109989501D01*
X140906796Y-110014005D01*
X140903196Y-110038273D01*
X140897235Y-110062072D01*
X140888970Y-110085171D01*
X140878480Y-110107350D01*
X140865868Y-110128393D01*
X140851253Y-110148099D01*
X140834777Y-110166277D01*
X140816599Y-110182753D01*
X140796893Y-110197368D01*
X140775850Y-110209980D01*
X140753671Y-110220470D01*
X140730572Y-110228735D01*
X140706773Y-110234696D01*
X140682505Y-110238296D01*
X140658001Y-110239500D01*
X139757999Y-110239500D01*
X139733495Y-110238296D01*
X139709227Y-110234696D01*
X139685428Y-110228735D01*
X139662329Y-110220470D01*
X139640150Y-110209980D01*
X139619107Y-110197368D01*
X139599401Y-110182753D01*
X139581223Y-110166277D01*
X139564747Y-110148099D01*
X139550132Y-110128393D01*
X139537520Y-110107350D01*
X139527030Y-110085171D01*
X139518765Y-110062072D01*
X139512804Y-110038273D01*
X139509204Y-110014005D01*
X139508000Y-109989501D01*
X139508000Y-109339499D01*
X139509204Y-109314995D01*
X139512804Y-109290727D01*
X139518765Y-109266928D01*
X139527030Y-109243829D01*
X139537520Y-109221650D01*
X139550132Y-109200607D01*
X139564747Y-109180901D01*
X139581223Y-109162723D01*
X139599401Y-109146247D01*
X139619107Y-109131632D01*
X139640150Y-109119020D01*
X139662329Y-109108530D01*
X139685428Y-109100265D01*
X139709227Y-109094304D01*
X139733495Y-109090704D01*
X139757999Y-109089500D01*
X140658001Y-109089500D01*
X140682505Y-109090704D01*
X140682505Y-109090704D01*
G37*
D13*
X140208000Y-109664500D03*
D12*
G36*
X137317005Y-109154204D02*
G01*
X137341273Y-109157804D01*
X137365072Y-109163765D01*
X137388171Y-109172030D01*
X137410350Y-109182520D01*
X137431393Y-109195132D01*
X137451099Y-109209747D01*
X137469277Y-109226223D01*
X137485753Y-109244401D01*
X137500368Y-109264107D01*
X137512980Y-109285150D01*
X137523470Y-109307329D01*
X137531735Y-109330428D01*
X137537696Y-109354227D01*
X137541296Y-109378495D01*
X137542500Y-109402999D01*
X137542500Y-110053001D01*
X137541296Y-110077505D01*
X137537696Y-110101773D01*
X137531735Y-110125572D01*
X137523470Y-110148671D01*
X137512980Y-110170850D01*
X137500368Y-110191893D01*
X137485753Y-110211599D01*
X137469277Y-110229777D01*
X137451099Y-110246253D01*
X137431393Y-110260868D01*
X137410350Y-110273480D01*
X137388171Y-110283970D01*
X137365072Y-110292235D01*
X137341273Y-110298196D01*
X137317005Y-110301796D01*
X137292501Y-110303000D01*
X136392499Y-110303000D01*
X136367995Y-110301796D01*
X136343727Y-110298196D01*
X136319928Y-110292235D01*
X136296829Y-110283970D01*
X136274650Y-110273480D01*
X136253607Y-110260868D01*
X136233901Y-110246253D01*
X136215723Y-110229777D01*
X136199247Y-110211599D01*
X136184632Y-110191893D01*
X136172020Y-110170850D01*
X136161530Y-110148671D01*
X136153265Y-110125572D01*
X136147304Y-110101773D01*
X136143704Y-110077505D01*
X136142500Y-110053001D01*
X136142500Y-109402999D01*
X136143704Y-109378495D01*
X136147304Y-109354227D01*
X136153265Y-109330428D01*
X136161530Y-109307329D01*
X136172020Y-109285150D01*
X136184632Y-109264107D01*
X136199247Y-109244401D01*
X136215723Y-109226223D01*
X136233901Y-109209747D01*
X136253607Y-109195132D01*
X136274650Y-109182520D01*
X136296829Y-109172030D01*
X136319928Y-109163765D01*
X136343727Y-109157804D01*
X136367995Y-109154204D01*
X136392499Y-109153000D01*
X137292501Y-109153000D01*
X137317005Y-109154204D01*
X137317005Y-109154204D01*
G37*
D13*
X136842500Y-109728000D03*
D12*
G36*
X137317005Y-111204204D02*
G01*
X137341273Y-111207804D01*
X137365072Y-111213765D01*
X137388171Y-111222030D01*
X137410350Y-111232520D01*
X137431393Y-111245132D01*
X137451099Y-111259747D01*
X137469277Y-111276223D01*
X137485753Y-111294401D01*
X137500368Y-111314107D01*
X137512980Y-111335150D01*
X137523470Y-111357329D01*
X137531735Y-111380428D01*
X137537696Y-111404227D01*
X137541296Y-111428495D01*
X137542500Y-111452999D01*
X137542500Y-112103001D01*
X137541296Y-112127505D01*
X137537696Y-112151773D01*
X137531735Y-112175572D01*
X137523470Y-112198671D01*
X137512980Y-112220850D01*
X137500368Y-112241893D01*
X137485753Y-112261599D01*
X137469277Y-112279777D01*
X137451099Y-112296253D01*
X137431393Y-112310868D01*
X137410350Y-112323480D01*
X137388171Y-112333970D01*
X137365072Y-112342235D01*
X137341273Y-112348196D01*
X137317005Y-112351796D01*
X137292501Y-112353000D01*
X136392499Y-112353000D01*
X136367995Y-112351796D01*
X136343727Y-112348196D01*
X136319928Y-112342235D01*
X136296829Y-112333970D01*
X136274650Y-112323480D01*
X136253607Y-112310868D01*
X136233901Y-112296253D01*
X136215723Y-112279777D01*
X136199247Y-112261599D01*
X136184632Y-112241893D01*
X136172020Y-112220850D01*
X136161530Y-112198671D01*
X136153265Y-112175572D01*
X136147304Y-112151773D01*
X136143704Y-112127505D01*
X136142500Y-112103001D01*
X136142500Y-111452999D01*
X136143704Y-111428495D01*
X136147304Y-111404227D01*
X136153265Y-111380428D01*
X136161530Y-111357329D01*
X136172020Y-111335150D01*
X136184632Y-111314107D01*
X136199247Y-111294401D01*
X136215723Y-111276223D01*
X136233901Y-111259747D01*
X136253607Y-111245132D01*
X136274650Y-111232520D01*
X136296829Y-111222030D01*
X136319928Y-111213765D01*
X136343727Y-111207804D01*
X136367995Y-111204204D01*
X136392499Y-111203000D01*
X137292501Y-111203000D01*
X137317005Y-111204204D01*
X137317005Y-111204204D01*
G37*
D13*
X136842500Y-111778000D03*
D12*
G36*
X155478005Y-114406704D02*
G01*
X155502273Y-114410304D01*
X155526072Y-114416265D01*
X155549171Y-114424530D01*
X155571350Y-114435020D01*
X155592393Y-114447632D01*
X155612099Y-114462247D01*
X155630277Y-114478723D01*
X155646753Y-114496901D01*
X155661368Y-114516607D01*
X155673980Y-114537650D01*
X155684470Y-114559829D01*
X155692735Y-114582928D01*
X155698696Y-114606727D01*
X155702296Y-114630995D01*
X155703500Y-114655499D01*
X155703500Y-115305501D01*
X155702296Y-115330005D01*
X155698696Y-115354273D01*
X155692735Y-115378072D01*
X155684470Y-115401171D01*
X155673980Y-115423350D01*
X155661368Y-115444393D01*
X155646753Y-115464099D01*
X155630277Y-115482277D01*
X155612099Y-115498753D01*
X155592393Y-115513368D01*
X155571350Y-115525980D01*
X155549171Y-115536470D01*
X155526072Y-115544735D01*
X155502273Y-115550696D01*
X155478005Y-115554296D01*
X155453501Y-115555500D01*
X154553499Y-115555500D01*
X154528995Y-115554296D01*
X154504727Y-115550696D01*
X154480928Y-115544735D01*
X154457829Y-115536470D01*
X154435650Y-115525980D01*
X154414607Y-115513368D01*
X154394901Y-115498753D01*
X154376723Y-115482277D01*
X154360247Y-115464099D01*
X154345632Y-115444393D01*
X154333020Y-115423350D01*
X154322530Y-115401171D01*
X154314265Y-115378072D01*
X154308304Y-115354273D01*
X154304704Y-115330005D01*
X154303500Y-115305501D01*
X154303500Y-114655499D01*
X154304704Y-114630995D01*
X154308304Y-114606727D01*
X154314265Y-114582928D01*
X154322530Y-114559829D01*
X154333020Y-114537650D01*
X154345632Y-114516607D01*
X154360247Y-114496901D01*
X154376723Y-114478723D01*
X154394901Y-114462247D01*
X154414607Y-114447632D01*
X154435650Y-114435020D01*
X154457829Y-114424530D01*
X154480928Y-114416265D01*
X154504727Y-114410304D01*
X154528995Y-114406704D01*
X154553499Y-114405500D01*
X155453501Y-114405500D01*
X155478005Y-114406704D01*
X155478005Y-114406704D01*
G37*
D13*
X155003500Y-114980500D03*
D12*
G36*
X155478005Y-116456704D02*
G01*
X155502273Y-116460304D01*
X155526072Y-116466265D01*
X155549171Y-116474530D01*
X155571350Y-116485020D01*
X155592393Y-116497632D01*
X155612099Y-116512247D01*
X155630277Y-116528723D01*
X155646753Y-116546901D01*
X155661368Y-116566607D01*
X155673980Y-116587650D01*
X155684470Y-116609829D01*
X155692735Y-116632928D01*
X155698696Y-116656727D01*
X155702296Y-116680995D01*
X155703500Y-116705499D01*
X155703500Y-117355501D01*
X155702296Y-117380005D01*
X155698696Y-117404273D01*
X155692735Y-117428072D01*
X155684470Y-117451171D01*
X155673980Y-117473350D01*
X155661368Y-117494393D01*
X155646753Y-117514099D01*
X155630277Y-117532277D01*
X155612099Y-117548753D01*
X155592393Y-117563368D01*
X155571350Y-117575980D01*
X155549171Y-117586470D01*
X155526072Y-117594735D01*
X155502273Y-117600696D01*
X155478005Y-117604296D01*
X155453501Y-117605500D01*
X154553499Y-117605500D01*
X154528995Y-117604296D01*
X154504727Y-117600696D01*
X154480928Y-117594735D01*
X154457829Y-117586470D01*
X154435650Y-117575980D01*
X154414607Y-117563368D01*
X154394901Y-117548753D01*
X154376723Y-117532277D01*
X154360247Y-117514099D01*
X154345632Y-117494393D01*
X154333020Y-117473350D01*
X154322530Y-117451171D01*
X154314265Y-117428072D01*
X154308304Y-117404273D01*
X154304704Y-117380005D01*
X154303500Y-117355501D01*
X154303500Y-116705499D01*
X154304704Y-116680995D01*
X154308304Y-116656727D01*
X154314265Y-116632928D01*
X154322530Y-116609829D01*
X154333020Y-116587650D01*
X154345632Y-116566607D01*
X154360247Y-116546901D01*
X154376723Y-116528723D01*
X154394901Y-116512247D01*
X154414607Y-116497632D01*
X154435650Y-116485020D01*
X154457829Y-116474530D01*
X154480928Y-116466265D01*
X154504727Y-116460304D01*
X154528995Y-116456704D01*
X154553499Y-116455500D01*
X155453501Y-116455500D01*
X155478005Y-116456704D01*
X155478005Y-116456704D01*
G37*
D13*
X155003500Y-117030500D03*
D12*
G36*
X140682505Y-113662704D02*
G01*
X140706773Y-113666304D01*
X140730572Y-113672265D01*
X140753671Y-113680530D01*
X140775850Y-113691020D01*
X140796893Y-113703632D01*
X140816599Y-113718247D01*
X140834777Y-113734723D01*
X140851253Y-113752901D01*
X140865868Y-113772607D01*
X140878480Y-113793650D01*
X140888970Y-113815829D01*
X140897235Y-113838928D01*
X140903196Y-113862727D01*
X140906796Y-113886995D01*
X140908000Y-113911499D01*
X140908000Y-114561501D01*
X140906796Y-114586005D01*
X140903196Y-114610273D01*
X140897235Y-114634072D01*
X140888970Y-114657171D01*
X140878480Y-114679350D01*
X140865868Y-114700393D01*
X140851253Y-114720099D01*
X140834777Y-114738277D01*
X140816599Y-114754753D01*
X140796893Y-114769368D01*
X140775850Y-114781980D01*
X140753671Y-114792470D01*
X140730572Y-114800735D01*
X140706773Y-114806696D01*
X140682505Y-114810296D01*
X140658001Y-114811500D01*
X139757999Y-114811500D01*
X139733495Y-114810296D01*
X139709227Y-114806696D01*
X139685428Y-114800735D01*
X139662329Y-114792470D01*
X139640150Y-114781980D01*
X139619107Y-114769368D01*
X139599401Y-114754753D01*
X139581223Y-114738277D01*
X139564747Y-114720099D01*
X139550132Y-114700393D01*
X139537520Y-114679350D01*
X139527030Y-114657171D01*
X139518765Y-114634072D01*
X139512804Y-114610273D01*
X139509204Y-114586005D01*
X139508000Y-114561501D01*
X139508000Y-113911499D01*
X139509204Y-113886995D01*
X139512804Y-113862727D01*
X139518765Y-113838928D01*
X139527030Y-113815829D01*
X139537520Y-113793650D01*
X139550132Y-113772607D01*
X139564747Y-113752901D01*
X139581223Y-113734723D01*
X139599401Y-113718247D01*
X139619107Y-113703632D01*
X139640150Y-113691020D01*
X139662329Y-113680530D01*
X139685428Y-113672265D01*
X139709227Y-113666304D01*
X139733495Y-113662704D01*
X139757999Y-113661500D01*
X140658001Y-113661500D01*
X140682505Y-113662704D01*
X140682505Y-113662704D01*
G37*
D13*
X140208000Y-114236500D03*
D12*
G36*
X140682505Y-115712704D02*
G01*
X140706773Y-115716304D01*
X140730572Y-115722265D01*
X140753671Y-115730530D01*
X140775850Y-115741020D01*
X140796893Y-115753632D01*
X140816599Y-115768247D01*
X140834777Y-115784723D01*
X140851253Y-115802901D01*
X140865868Y-115822607D01*
X140878480Y-115843650D01*
X140888970Y-115865829D01*
X140897235Y-115888928D01*
X140903196Y-115912727D01*
X140906796Y-115936995D01*
X140908000Y-115961499D01*
X140908000Y-116611501D01*
X140906796Y-116636005D01*
X140903196Y-116660273D01*
X140897235Y-116684072D01*
X140888970Y-116707171D01*
X140878480Y-116729350D01*
X140865868Y-116750393D01*
X140851253Y-116770099D01*
X140834777Y-116788277D01*
X140816599Y-116804753D01*
X140796893Y-116819368D01*
X140775850Y-116831980D01*
X140753671Y-116842470D01*
X140730572Y-116850735D01*
X140706773Y-116856696D01*
X140682505Y-116860296D01*
X140658001Y-116861500D01*
X139757999Y-116861500D01*
X139733495Y-116860296D01*
X139709227Y-116856696D01*
X139685428Y-116850735D01*
X139662329Y-116842470D01*
X139640150Y-116831980D01*
X139619107Y-116819368D01*
X139599401Y-116804753D01*
X139581223Y-116788277D01*
X139564747Y-116770099D01*
X139550132Y-116750393D01*
X139537520Y-116729350D01*
X139527030Y-116707171D01*
X139518765Y-116684072D01*
X139512804Y-116660273D01*
X139509204Y-116636005D01*
X139508000Y-116611501D01*
X139508000Y-115961499D01*
X139509204Y-115936995D01*
X139512804Y-115912727D01*
X139518765Y-115888928D01*
X139527030Y-115865829D01*
X139537520Y-115843650D01*
X139550132Y-115822607D01*
X139564747Y-115802901D01*
X139581223Y-115784723D01*
X139599401Y-115768247D01*
X139619107Y-115753632D01*
X139640150Y-115741020D01*
X139662329Y-115730530D01*
X139685428Y-115722265D01*
X139709227Y-115716304D01*
X139733495Y-115712704D01*
X139757999Y-115711500D01*
X140658001Y-115711500D01*
X140682505Y-115712704D01*
X140682505Y-115712704D01*
G37*
D13*
X140208000Y-116286500D03*
D12*
G36*
X137317005Y-113662704D02*
G01*
X137341273Y-113666304D01*
X137365072Y-113672265D01*
X137388171Y-113680530D01*
X137410350Y-113691020D01*
X137431393Y-113703632D01*
X137451099Y-113718247D01*
X137469277Y-113734723D01*
X137485753Y-113752901D01*
X137500368Y-113772607D01*
X137512980Y-113793650D01*
X137523470Y-113815829D01*
X137531735Y-113838928D01*
X137537696Y-113862727D01*
X137541296Y-113886995D01*
X137542500Y-113911499D01*
X137542500Y-114561501D01*
X137541296Y-114586005D01*
X137537696Y-114610273D01*
X137531735Y-114634072D01*
X137523470Y-114657171D01*
X137512980Y-114679350D01*
X137500368Y-114700393D01*
X137485753Y-114720099D01*
X137469277Y-114738277D01*
X137451099Y-114754753D01*
X137431393Y-114769368D01*
X137410350Y-114781980D01*
X137388171Y-114792470D01*
X137365072Y-114800735D01*
X137341273Y-114806696D01*
X137317005Y-114810296D01*
X137292501Y-114811500D01*
X136392499Y-114811500D01*
X136367995Y-114810296D01*
X136343727Y-114806696D01*
X136319928Y-114800735D01*
X136296829Y-114792470D01*
X136274650Y-114781980D01*
X136253607Y-114769368D01*
X136233901Y-114754753D01*
X136215723Y-114738277D01*
X136199247Y-114720099D01*
X136184632Y-114700393D01*
X136172020Y-114679350D01*
X136161530Y-114657171D01*
X136153265Y-114634072D01*
X136147304Y-114610273D01*
X136143704Y-114586005D01*
X136142500Y-114561501D01*
X136142500Y-113911499D01*
X136143704Y-113886995D01*
X136147304Y-113862727D01*
X136153265Y-113838928D01*
X136161530Y-113815829D01*
X136172020Y-113793650D01*
X136184632Y-113772607D01*
X136199247Y-113752901D01*
X136215723Y-113734723D01*
X136233901Y-113718247D01*
X136253607Y-113703632D01*
X136274650Y-113691020D01*
X136296829Y-113680530D01*
X136319928Y-113672265D01*
X136343727Y-113666304D01*
X136367995Y-113662704D01*
X136392499Y-113661500D01*
X137292501Y-113661500D01*
X137317005Y-113662704D01*
X137317005Y-113662704D01*
G37*
D13*
X136842500Y-114236500D03*
D12*
G36*
X137317005Y-115712704D02*
G01*
X137341273Y-115716304D01*
X137365072Y-115722265D01*
X137388171Y-115730530D01*
X137410350Y-115741020D01*
X137431393Y-115753632D01*
X137451099Y-115768247D01*
X137469277Y-115784723D01*
X137485753Y-115802901D01*
X137500368Y-115822607D01*
X137512980Y-115843650D01*
X137523470Y-115865829D01*
X137531735Y-115888928D01*
X137537696Y-115912727D01*
X137541296Y-115936995D01*
X137542500Y-115961499D01*
X137542500Y-116611501D01*
X137541296Y-116636005D01*
X137537696Y-116660273D01*
X137531735Y-116684072D01*
X137523470Y-116707171D01*
X137512980Y-116729350D01*
X137500368Y-116750393D01*
X137485753Y-116770099D01*
X137469277Y-116788277D01*
X137451099Y-116804753D01*
X137431393Y-116819368D01*
X137410350Y-116831980D01*
X137388171Y-116842470D01*
X137365072Y-116850735D01*
X137341273Y-116856696D01*
X137317005Y-116860296D01*
X137292501Y-116861500D01*
X136392499Y-116861500D01*
X136367995Y-116860296D01*
X136343727Y-116856696D01*
X136319928Y-116850735D01*
X136296829Y-116842470D01*
X136274650Y-116831980D01*
X136253607Y-116819368D01*
X136233901Y-116804753D01*
X136215723Y-116788277D01*
X136199247Y-116770099D01*
X136184632Y-116750393D01*
X136172020Y-116729350D01*
X136161530Y-116707171D01*
X136153265Y-116684072D01*
X136147304Y-116660273D01*
X136143704Y-116636005D01*
X136142500Y-116611501D01*
X136142500Y-115961499D01*
X136143704Y-115936995D01*
X136147304Y-115912727D01*
X136153265Y-115888928D01*
X136161530Y-115865829D01*
X136172020Y-115843650D01*
X136184632Y-115822607D01*
X136199247Y-115802901D01*
X136215723Y-115784723D01*
X136233901Y-115768247D01*
X136253607Y-115753632D01*
X136274650Y-115741020D01*
X136296829Y-115730530D01*
X136319928Y-115722265D01*
X136343727Y-115716304D01*
X136367995Y-115712704D01*
X136392499Y-115711500D01*
X137292501Y-115711500D01*
X137317005Y-115712704D01*
X137317005Y-115712704D01*
G37*
D13*
X136842500Y-116286500D03*
M02*
